Number,Nom,Download link,Type,Industry
1,Netflix catalog,"`Netflix movies with data <https://storage.googleapis.com/pio-nlp/Netflix_Catalog.csv>`_",NLP,entertainment
2,French candidates multiclassif trainset sample,"`Tweets of French Presidential Candidates 2022 ( train sample ) <https://storage.googleapis.com/pio-nlp/french_candidates_nlp_multiclassif_train.csv>`_",NLP,politics
3,French candidates multiclassif holdout,"`Tweets of French Presidential Candidates 2022 ( holdout ) <https://storage.googleapis.com/pio-nlp/french_candidates_nlp_multiclassif_test.csv>`_",NLP,politics

